%YAML 1.1
%TAG !u! tag:unity3d.com,2011:
--- !u!74 &7400000
AnimationClip:
  m_ObjectHideFlags: 0
  m_CorrespondingSourceObject: {fileID: 0}
  m_PrefabInstance: {fileID: 0}
  m_PrefabAsset: {fileID: 0}
  m_Name: paraguas
  serializedVersion: 6
  m_Legacy: 0
  m_Compressed: 0
  m_UseHighQualityCurve: 1
  m_RotationCurves: []
  m_CompressedRotationCurves: []
  m_EulerCurves: []
  m_PositionCurves: []
  m_ScaleCurves: []
  m_FloatCurves: []
  m_PPtrCurves:
  - curve:
    - time: 0
      value: {fileID: 21300000, guid: 9732448834eeba347bf85721c5074da7, type: 3}
    - time: 0.33333334
      value: {fileID: 21300000, guid: a45919720a4db2b47a6fffe6ddaee987, type: 3}
    - time: 0.75
      value: {fileID: 21300000, guid: e39d980848b1f5a4fb231ffc0698317c, type: 3}
    - time: 1.1666666
      value: {fileID: 21300000, guid: dd2629082fd99eb41a4580c922b0b309, type: 3}
    - time: 1.5833334
      value: {fileID: 21300000, guid: 12915bfa776caa24cbf4b9e695b885ba, type: 3}
    - time: 2
      value: {fileID: 21300000, guid: af8ea2d3dba178e44a926b2a10e930cc, type: 3}
    - time: 2.4166667
      value: {fileID: 21300000, guid: 3fc7a2519435d394283dc6057fd022af, type: 3}
    - time: 2.8333333
      value: {fileID: 21300000, guid: fbe8af1ad5676074c996b489b3e78296, type: 3}
    - time: 3.25
      value: {fileID: 21300000, guid: f5d999f61f6a9bd46ab334c7cf5c82a1, type: 3}
    - time: 3.6666667
      value: {fileID: 21300000, guid: a0e1c23264ea19e4780263ff67235f47, type: 3}
    - time: 4.0833335
      value: {fileID: 21300000, guid: eb0624dd1ddc4d246babd5b04fbf5725, type: 3}
    - time: 4.5
      value: {fileID: 21300000, guid: c4605891292c90d4b9e3b90c0901393b, type: 3}
    - time: 4.9166665
      value: {fileID: 21300000, guid: 99b99708b157e7c4f8f0c50ae364f8a9, type: 3}
    - time: 5.3333335
      value: {fileID: 21300000, guid: 73e74fd1e73e86f47989633bb845298a, type: 3}
    - time: 5.75
      value: {fileID: 21300000, guid: 44d77da8ffbcfac4ba80c09d3d463bf6, type: 3}
    - time: 6.1666665
      value: {fileID: 21300000, guid: 4b11736b78215fb4bab753fce09474ef, type: 3}
    - time: 6.5833335
      value: {fileID: 21300000, guid: 104f59275e9fce346a42d79ac4edf4e0, type: 3}
    - time: 7
      value: {fileID: 21300000, guid: c83bdfc90eb11ec4b9e020a670196458, type: 3}
    - time: 7.4166665
      value: {fileID: 21300000, guid: 0bd448e141cd8874aadcd9ee83fb32f5, type: 3}
    - time: 7.8333335
      value: {fileID: 21300000, guid: 654b509f7590f874f86e14e6fe5066b1, type: 3}
    attribute: m_Sprite
    path: 
    classID: 212
    script: {fileID: 0}
  m_SampleRate: 12
  m_WrapMode: 0
  m_Bounds:
    m_Center: {x: 0, y: 0, z: 0}
    m_Extent: {x: 0, y: 0, z: 0}
  m_ClipBindingConstant:
    genericBindings:
    - serializedVersion: 2
      path: 0
      attribute: 0
      script: {fileID: 0}
      typeID: 212
      customType: 23
      isPPtrCurve: 1
    pptrCurveMapping:
    - {fileID: 21300000, guid: 9732448834eeba347bf85721c5074da7, type: 3}
    - {fileID: 21300000, guid: a45919720a4db2b47a6fffe6ddaee987, type: 3}
    - {fileID: 21300000, guid: e39d980848b1f5a4fb231ffc0698317c, type: 3}
    - {fileID: 21300000, guid: dd2629082fd99eb41a4580c922b0b309, type: 3}
    - {fileID: 21300000, guid: 12915bfa776caa24cbf4b9e695b885ba, type: 3}
    - {fileID: 21300000, guid: af8ea2d3dba178e44a926b2a10e930cc, type: 3}
    - {fileID: 21300000, guid: 3fc7a2519435d394283dc6057fd022af, type: 3}
    - {fileID: 21300000, guid: fbe8af1ad5676074c996b489b3e78296, type: 3}
    - {fileID: 21300000, guid: f5d999f61f6a9bd46ab334c7cf5c82a1, type: 3}
    - {fileID: 21300000, guid: a0e1c23264ea19e4780263ff67235f47, type: 3}
    - {fileID: 21300000, guid: eb0624dd1ddc4d246babd5b04fbf5725, type: 3}
    - {fileID: 21300000, guid: c4605891292c90d4b9e3b90c0901393b, type: 3}
    - {fileID: 21300000, guid: 99b99708b157e7c4f8f0c50ae364f8a9, type: 3}
    - {fileID: 21300000, guid: 73e74fd1e73e86f47989633bb845298a, type: 3}
    - {fileID: 21300000, guid: 44d77da8ffbcfac4ba80c09d3d463bf6, type: 3}
    - {fileID: 21300000, guid: 4b11736b78215fb4bab753fce09474ef, type: 3}
    - {fileID: 21300000, guid: 104f59275e9fce346a42d79ac4edf4e0, type: 3}
    - {fileID: 21300000, guid: c83bdfc90eb11ec4b9e020a670196458, type: 3}
    - {fileID: 21300000, guid: 0bd448e141cd8874aadcd9ee83fb32f5, type: 3}
    - {fileID: 21300000, guid: 654b509f7590f874f86e14e6fe5066b1, type: 3}
  m_AnimationClipSettings:
    serializedVersion: 2
    m_AdditiveReferencePoseClip: {fileID: 0}
    m_AdditiveReferencePoseTime: 0
    m_StartTime: 0
    m_StopTime: 7.916667
    m_OrientationOffsetY: 0
    m_Level: 0
    m_CycleOffset: 0
    m_HasAdditiveReferencePose: 0
    m_LoopTime: 1
    m_LoopBlend: 0
    m_LoopBlendOrientation: 0
    m_LoopBlendPositionY: 0
    m_LoopBlendPositionXZ: 0
    m_KeepOriginalOrientation: 0
    m_KeepOriginalPositionY: 1
    m_KeepOriginalPositionXZ: 0
    m_HeightFromFeet: 0
    m_Mirror: 0
  m_EditorCurves: []
  m_EulerEditorCurves: []
  m_HasGenericRootTransform: 0
  m_HasMotionFloatCurves: 0
  m_Events: []
